Projeto Final AEM II
…
## Joining with `by = join_by(Coluna)`

metadata

## # A tibble: 39 × 3
##    Coluna           Tipo  `Total NA`
##    <chr>            <chr>      <int>
##  1 Income           dbl            0
##  2 Kidhome          dbl            0
##  3 Teenhome         dbl            0
##  4 Recency          dbl            0
##  5 MntWines         dbl            0
##  6 MntFruits        dbl            0
##  7 MntMeatProducts  dbl            0
##  8 MntFishProducts  dbl            0
##  9 MntSweetProducts dbl            0
## 10 MntGoldProds     dbl            0
## # ℹ 29 more rows
…
As colunas “Z_CostContact” e “Z_Revenue”, que representam,
respectivamente, o custo do contato e o valor da receita, possuem um
único valor em todas as observações. Logo, essas colunas não contribuem
com informações úteis para aprimorar a precisão dos modelos preditivos
ou da segmentação dos clientes. Portanto, estas variáveis serão
excluídas da base.

col_rem <- c("Z_CostContact", "Z_Revenue")

dados <- dados %>% select(-one_of(col_rem))

dados

## # A tibble: 2,200 × 37
##    Income Kidhome Teenhome Recency MntWines MntFruits MntMeatProducts
##     <dbl>   <dbl>    <dbl>   <dbl>    <dbl>     <dbl>           <dbl>
##  1  58138       0        0      58      635        88             546
##  2  46344       1        1      38       11         1               6
##  3  71613       0        0      26      426        49             127
##  4  26646       1        0      26       11         4              20
##  5  58293       1        0      94      173        43             118
##  6  62513       0        1      16      520        42              98
##  7  55635       0        1      34      235        65             164
##  8  33454       1        0      32       76        10              56
##  9  30351       1        0      19       14         0              24
## 10   5648       1        1      68       28         0               6
## # ℹ 2,190 more rows
## # ℹ 30 more variables: MntFishProducts <dbl>, MntSweetProducts <dbl>,
## #   MntGoldProds <dbl>, NumDealsPurchases <dbl>, NumWebPurchases <dbl>,
## #   NumCatalogPurchases <dbl>, NumStorePurchases <dbl>,
## #   NumWebVisitsMonth <dbl>, AcceptedCmp3 <dbl>, AcceptedCmp4 <dbl>,
## #   AcceptedCmp5 <dbl>, AcceptedCmp1 <dbl>, AcceptedCmp2 <dbl>, Complain <dbl>,
## #   Response <dbl>, Age <dbl>, Customer_Days <dbl>, marital_Divorced <dbl>, …
…
3.1. Modelos Supervisionados

3.1.1. Regressão Logística

Definindo modelo, engine e realizando o fit

fit_glm <- logistic_reg() %>% 
  set_engine("glm") %>% 
  set_mode("classification") %>% 
  fit(Response ~ ., treinamento_proc) 

tidy(fit_glm) # estimativas do modelo ajustado em formato tidy

## # A tibble: 37 × 5
##    term             estimate std.error statistic  p.value
##    <chr>               <dbl>     <dbl>     <dbl>    <dbl>
##  1 (Intercept)       -2.87       0.147   -19.6   3.22e-85
##  2 Income             0.441      0.249     1.77  7.68e- 2
##  3 Kidhome            0.0570     0.145     0.394 6.94e- 1
##  4 Teenhome          -0.482      0.139    -3.46  5.46e- 4
##  5 Recency           -0.823      0.104    -7.88  3.23e-15
##  6 MntWines          -0.312      0.175    -1.78  7.48e- 2
##  7 MntFruits          0.108      0.114     0.947 3.44e- 1
##  8 MntMeatProducts    0.498      0.144     3.45  5.54e- 4
##  9 MntFishProducts   -0.0365     0.128    -0.284 7.76e- 1
## 10 MntSweetProducts  -0.0433     0.122    -0.355 7.22e- 1
## # ℹ 27 more rows
…
lambda_tune %>% 
  collect_metrics() # obtem as metricas calculadas

## # A tibble: 60 × 7
##     penalty .metric  .estimator  mean     n std_err .config              
##       <dbl> <chr>    <chr>      <dbl> <int>   <dbl> <chr>                
##  1 1.53e-10 accuracy binary     0.892    10 0.00684 Preprocessor1_Model01
##  2 1.53e-10 roc_auc  binary     0.895    10 0.0118  Preprocessor1_Model01
##  3 2.49e-10 accuracy binary     0.892    10 0.00684 Preprocessor1_Model02
##  4 2.49e-10 roc_auc  binary     0.895    10 0.0118  Preprocessor1_Model02
##  5 5.16e-10 accuracy binary     0.892    10 0.00684 Preprocessor1_Model03
##  6 5.16e-10 roc_auc  binary     0.895    10 0.0118  Preprocessor1_Model03
##  7 1.79e- 9 accuracy binary     0.892    10 0.00684 Preprocessor1_Model04
##  8 1.79e- 9 roc_auc  binary     0.895    10 0.0118  Preprocessor1_Model04
##  9 3.36e- 9 accuracy binary     0.892    10 0.00684 Preprocessor1_Model05
## 10 3.36e- 9 roc_auc  binary     0.895    10 0.0118  Preprocessor1_Model05
## # ℹ 50 more rows
…
lambda_tune %>% 
  collect_metrics() # obtem as metricas calculadas

## # A tibble: 60 × 7
##     penalty .metric  .estimator  mean     n std_err .config              
##       <dbl> <chr>    <chr>      <dbl> <int>   <dbl> <chr>                
##  1 1.53e-10 accuracy binary     0.893    10 0.00573 Preprocessor1_Model01
##  2 1.53e-10 roc_auc  binary     0.896    10 0.0115  Preprocessor1_Model01
##  3 2.49e-10 accuracy binary     0.893    10 0.00573 Preprocessor1_Model02
##  4 2.49e-10 roc_auc  binary     0.896    10 0.0115  Preprocessor1_Model02
##  5 5.16e-10 accuracy binary     0.893    10 0.00573 Preprocessor1_Model03
##  6 5.16e-10 roc_auc  binary     0.896    10 0.0115  Preprocessor1_Model03
##  7 1.79e- 9 accuracy binary     0.893    10 0.00573 Preprocessor1_Model04
##  8 1.79e- 9 roc_auc  binary     0.896    10 0.0115  Preprocessor1_Model04
##  9 3.36e- 9 accuracy binary     0.893    10 0.00573 Preprocessor1_Model05
## 10 3.36e- 9 roc_auc  binary     0.896    10 0.0115  Preprocessor1_Model05
## # ℹ 50 more rows
…
